M48
; DRILL file {KiCad 5.99.0+really5.1.10+dfsg1-1+b1} date Sun Oct 31 15:41:43 2021
; FORMAT={-:-/ absolute / metric / decimal}
; #@! TF.CreationDate,2021-10-31T15:41:43+01:00
; #@! TF.GenerationSoftware,Kicad,Pcbnew,5.99.0+really5.1.10+dfsg1-1+b1
; #@! TF.FileFunction,Plated,1,2,PTH
FMAT,2
METRIC
T1C0.400
T2C0.800
T3C1.000
%
G90
G05
T1
X86.36Y-93.98
X87.63Y-88.265
X87.63Y-100.33
X89.445Y-91.44
X90.17Y-88.265
X90.805Y-95.25
X90.895Y-93.345
X91.44Y-73.025
X91.44Y-79.375
X91.44Y-81.915
X92.71Y-88.265
X93.44Y-74.93
X94.615Y-74.93
X94.615Y-91.44
X95.885Y-76.835
X95.885Y-79.375
X95.885Y-81.915
X95.885Y-90.805
X95.885Y-92.71
X95.885Y-101.6
X98.97Y-87.63
X99.06Y-98.425
X99.695Y-81.915
X101.6Y-92.075
X104.775Y-85.09
X104.775Y-88.265
X104.775Y-95.885
X104.775Y-98.425
X106.045Y-89.535
X106.045Y-99.695
X107.95Y-96.52
X107.95Y-97.79
X107.95Y-100.33
X111.76Y-73.025
X111.76Y-93.98
X111.76Y-97.79
X114.935Y-104.14
X115.57Y-73.025
X117.385Y-85.725
X117.385Y-95.25
X117.385Y-96.52
X117.475Y-97.79
X118.745Y-100.33
X118.835Y-92.075
X119.925Y-81.915
X119.925Y-83.82
X119.925Y-86.36
X119.925Y-88.265
X119.925Y-95.885
X119.925Y-97.155
X120.015Y-73.025
X120.015Y-75.565
X120.65Y-102.87
X121.195Y-76.835
X121.195Y-78.105
X121.285Y-72.39
X121.92Y-69.85
X121.92Y-93.98
T2
X124.46Y-69.215
X124.46Y-71.755
X124.46Y-74.295
X124.46Y-76.835
X124.46Y-79.375
X124.46Y-81.915
X124.46Y-84.455
X124.46Y-86.995
X124.46Y-89.535
X124.46Y-92.075
X124.46Y-94.615
X124.46Y-97.155
X124.46Y-99.695
X124.46Y-102.235
T3
X87.63Y-80.01
X87.63Y-82.51
T0
M30
