EESchema Schematic File Version 4
EELAYER 30 0
EELAYER END
$Descr A4 11693 8268
encoding utf-8
Sheet 1 1
Title ""
Date ""
Rev ""
Comp ""
Comment1 ""
Comment2 ""
Comment3 ""
Comment4 ""
$EndDescr
$Comp
L Connector_Generic:Conn_01x02 J1
U 1 1 6159B2BE
P 1150 5950
F 0 "J1" H 1068 5625 50  0000 C CNN
F 1 "9-12v" H 1068 5716 50  0000 C CNN
F 2 "Connector_JST:JST_EH_S2B-EH_1x02_P2.50mm_Horizontal" H 1150 5950 50  0001 C CNN
F 3 "~" H 1150 5950 50  0001 C CNN
	1    1150 5950
	-1   0    0    1   
$EndComp
$Comp
L Switch:SW_SPDT SW1
U 1 1 6159CB1C
P 1850 5750
F 0 "SW1" H 1850 6035 50  0000 C CNN
F 1 "main power" H 1850 5944 50  0000 C CNN
F 2 "Button_Switch_SMD:SW_SPDT_PCM12" H 1850 5750 50  0001 C CNN
F 3 "~" H 1850 5750 50  0001 C CNN
	1    1850 5750
	1    0    0    -1  
$EndComp
NoConn ~ 2050 5650
$Comp
L 4xxx:HEF4093B U1
U 5 1 6159E030
P 2900 6450
F 0 "U1" H 3130 6496 50  0000 L CNN
F 1 "HEF4093B" H 3130 6405 50  0000 L CNN
F 2 "Package_SO:SOIC-14_3.9x8.7mm_P1.27mm" H 2900 6450 50  0001 C CNN
F 3 "https://assets.nexperia.com/documents/data-sheet/HEF4093B.pdf" H 2900 6450 50  0001 C CNN
	5    2900 6450
	1    0    0    -1  
$EndComp
$Comp
L 4xxx:HEF4093B U1
U 4 1 6159E633
P 5450 6700
F 0 "U1" H 5450 7025 50  0000 C CNN
F 1 "HEF4093B" H 5450 6934 50  0000 C CNN
F 2 "Package_SO:SOIC-14_3.9x8.7mm_P1.27mm" H 5450 6700 50  0001 C CNN
F 3 "https://assets.nexperia.com/documents/data-sheet/HEF4093B.pdf" H 5450 6700 50  0001 C CNN
	4    5450 6700
	1    0    0    -1  
$EndComp
$Comp
L 4xxx:HEF4093B U1
U 3 1 6159F65E
P 10100 3150
F 0 "U1" H 10100 3475 50  0000 C CNN
F 1 "HEF4093B" H 10100 3384 50  0000 C CNN
F 2 "Package_SO:SOIC-14_3.9x8.7mm_P1.27mm" H 10100 3150 50  0001 C CNN
F 3 "https://assets.nexperia.com/documents/data-sheet/HEF4093B.pdf" H 10100 3150 50  0001 C CNN
	3    10100 3150
	1    0    0    -1  
$EndComp
$Comp
L 4xxx:HEF4093B U1
U 2 1 615A0D96
P 10100 4300
F 0 "U1" H 10100 4625 50  0000 C CNN
F 1 "HEF4093B" H 10100 4534 50  0000 C CNN
F 2 "Package_SO:SOIC-14_3.9x8.7mm_P1.27mm" H 10100 4300 50  0001 C CNN
F 3 "https://assets.nexperia.com/documents/data-sheet/HEF4093B.pdf" H 10100 4300 50  0001 C CNN
	2    10100 4300
	-1   0    0    -1  
$EndComp
$Comp
L 4xxx:HEF4093B U1
U 1 1 615A237A
P 5250 1450
F 0 "U1" H 5250 1133 50  0000 C CNN
F 1 "HEF4093B" H 5250 1224 50  0000 C CNN
F 2 "Package_SO:SOIC-14_3.9x8.7mm_P1.27mm" H 5250 1450 50  0001 C CNN
F 3 "https://assets.nexperia.com/documents/data-sheet/HEF4093B.pdf" H 5250 1450 50  0001 C CNN
	1    5250 1450
	1    0    0    1   
$EndComp
$Comp
L 4xxx:4027 U2
U 3 1 615A4A05
P 3800 6450
F 0 "U2" H 4030 6496 50  0000 L CNN
F 1 "4027" H 4030 6405 50  0000 L CNN
F 2 "Package_SO:SOIC-16_3.9x9.9mm_P1.27mm" H 3800 6450 50  0001 C CNN
F 3 "http://www.intersil.com/content/dam/Intersil/documents/cd40/cd4027bms.pdf" H 3800 6450 50  0001 C CNN
	3    3800 6450
	1    0    0    -1  
$EndComp
$Comp
L 4xxx:4027 U2
U 1 1 615A5E28
P 7750 1450
F 0 "U2" H 7450 1800 50  0000 C CNN
F 1 "4027" H 7450 1700 50  0000 C CNN
F 2 "Package_SO:SOIC-16_3.9x9.9mm_P1.27mm" H 7750 1450 50  0001 C CNN
F 3 "http://www.intersil.com/content/dam/Intersil/documents/cd40/cd4027bms.pdf" H 7750 1450 50  0001 C CNN
	1    7750 1450
	1    0    0    -1  
$EndComp
$Comp
L 4xxx:4027 U2
U 2 1 615A6408
P 7750 2450
F 0 "U2" H 7450 2800 50  0000 C CNN
F 1 "4027" H 7450 2700 50  0000 C CNN
F 2 "Package_SO:SOIC-16_3.9x9.9mm_P1.27mm" H 7750 2450 50  0001 C CNN
F 3 "http://www.intersil.com/content/dam/Intersil/documents/cd40/cd4027bms.pdf" H 7750 2450 50  0001 C CNN
	2    7750 2450
	1    0    0    -1  
$EndComp
$Comp
L 4xxx:4027 U3
U 1 1 615A79FD
P 7750 3450
F 0 "U3" H 7450 3800 50  0000 C CNN
F 1 "4027" H 7450 3700 50  0000 C CNN
F 2 "Package_SO:SOIC-16_3.9x9.9mm_P1.27mm" H 7750 3450 50  0001 C CNN
F 3 "http://www.intersil.com/content/dam/Intersil/documents/cd40/cd4027bms.pdf" H 7750 3450 50  0001 C CNN
	1    7750 3450
	1    0    0    -1  
$EndComp
$Comp
L 4xxx:4027 U3
U 2 1 615A86B7
P 7750 4450
F 0 "U3" H 7450 4800 50  0000 C CNN
F 1 "4027" H 7450 4700 50  0000 C CNN
F 2 "Package_SO:SOIC-16_3.9x9.9mm_P1.27mm" H 7750 4450 50  0001 C CNN
F 3 "http://www.intersil.com/content/dam/Intersil/documents/cd40/cd4027bms.pdf" H 7750 4450 50  0001 C CNN
	2    7750 4450
	1    0    0    -1  
$EndComp
$Comp
L 4xxx:4027 U3
U 3 1 615A9658
P 4450 6450
F 0 "U3" H 4680 6496 50  0000 L CNN
F 1 "4027" H 4680 6405 50  0000 L CNN
F 2 "Package_SO:SOIC-16_3.9x9.9mm_P1.27mm" H 4450 6450 50  0001 C CNN
F 3 "http://www.intersil.com/content/dam/Intersil/documents/cd40/cd4027bms.pdf" H 4450 6450 50  0001 C CNN
	3    4450 6450
	1    0    0    -1  
$EndComp
$Comp
L Device:C C1
U 1 1 615AFC0A
P 2250 6450
F 0 "C1" H 2365 6496 50  0000 L CNN
F 1 "100n" H 2365 6405 50  0000 L CNN
F 2 "Capacitor_SMD:C_0805_2012Metric" H 2288 6300 50  0001 C CNN
F 3 "~" H 2250 6450 50  0001 C CNN
	1    2250 6450
	1    0    0    -1  
$EndComp
NoConn ~ 5750 6700
Wire Wire Line
	1650 5750 1500 5750
Wire Wire Line
	1500 5750 1500 5850
Wire Wire Line
	1500 5850 1350 5850
Wire Wire Line
	2050 5850 2250 5850
Wire Wire Line
	4450 5850 4450 6050
Wire Wire Line
	3800 6050 3800 5850
Connection ~ 3800 5850
Wire Wire Line
	3800 5850 4450 5850
Wire Wire Line
	2900 5950 2900 5850
Connection ~ 2900 5850
Wire Wire Line
	2900 5850 3350 5850
Wire Wire Line
	2250 6300 2250 5850
Connection ~ 2250 5850
Wire Wire Line
	2250 5850 2600 5850
Wire Wire Line
	5150 6600 5050 6600
Wire Wire Line
	5050 6600 5050 6800
Wire Wire Line
	2250 7100 2250 6600
Wire Wire Line
	2900 6950 2900 7100
Connection ~ 2900 7100
Wire Wire Line
	2900 7100 2250 7100
Wire Wire Line
	3800 6850 3800 7100
Wire Wire Line
	2900 7100 3800 7100
Connection ~ 3800 7100
Wire Wire Line
	3800 7100 4450 7100
Connection ~ 4450 7100
Wire Wire Line
	4450 7100 5050 7100
Wire Wire Line
	4450 6850 4450 7100
Wire Wire Line
	5150 6800 5050 6800
Connection ~ 5050 6800
Wire Wire Line
	5050 6800 5050 7100
Wire Wire Line
	1350 5950 1500 5950
Wire Wire Line
	1500 5950 1500 7100
Wire Wire Line
	1500 7100 1650 7100
Connection ~ 2250 7100
$Comp
L power:GND #PWR01
U 1 1 615C1AC7
P 2050 7100
F 0 "#PWR01" H 2050 6850 50  0001 C CNN
F 1 "GND" H 2055 6927 50  0000 C CNN
F 2 "" H 2050 7100 50  0001 C CNN
F 3 "" H 2050 7100 50  0001 C CNN
	1    2050 7100
	1    0    0    -1  
$EndComp
Connection ~ 2050 7100
Wire Wire Line
	2050 7100 2250 7100
$Comp
L power:PWR_FLAG #FLG01
U 1 1 615C2928
P 1650 7100
F 0 "#FLG01" H 1650 7175 50  0001 C CNN
F 1 "PWR_FLAG" H 1650 7273 50  0000 C CNN
F 2 "" H 1650 7100 50  0001 C CNN
F 3 "~" H 1650 7100 50  0001 C CNN
	1    1650 7100
	-1   0    0    1   
$EndComp
Connection ~ 1650 7100
Wire Wire Line
	1650 7100 2050 7100
$Comp
L power:PWR_FLAG #FLG02
U 1 1 615C2FF1
P 2600 5850
F 0 "#FLG02" H 2600 5925 50  0001 C CNN
F 1 "PWR_FLAG" H 2600 6023 50  0000 C CNN
F 2 "" H 2600 5850 50  0001 C CNN
F 3 "~" H 2600 5850 50  0001 C CNN
	1    2600 5850
	1    0    0    -1  
$EndComp
Connection ~ 2600 5850
Wire Wire Line
	2600 5850 2900 5850
$Comp
L power:VCC #PWR02
U 1 1 615C3737
P 3350 5850
F 0 "#PWR02" H 3350 5700 50  0001 C CNN
F 1 "VCC" H 3365 6023 50  0000 C CNN
F 2 "" H 3350 5850 50  0001 C CNN
F 3 "" H 3350 5850 50  0001 C CNN
	1    3350 5850
	1    0    0    -1  
$EndComp
Connection ~ 3350 5850
Wire Wire Line
	3350 5850 3800 5850
$Comp
L Device:R_US R1
U 1 1 615DB8CE
P 5250 1850
F 0 "R1" V 5200 1650 50  0000 C CNN
F 1 "1k" V 5100 1650 50  0000 C CNN
F 2 "Resistor_SMD:R_0805_2012Metric" V 5290 1840 50  0001 C CNN
F 3 "~" H 5250 1850 50  0001 C CNN
	1    5250 1850
	0    -1   -1   0   
$EndComp
$Comp
L Device:C C2
U 1 1 615DE76A
P 4850 2100
F 0 "C2" H 4965 2146 50  0000 L CNN
F 1 "100n" H 4965 2055 50  0000 L CNN
F 2 "Capacitor_SMD:C_0805_2012Metric" H 4888 1950 50  0001 C CNN
F 3 "~" H 4850 2100 50  0001 C CNN
	1    4850 2100
	1    0    0    -1  
$EndComp
$Comp
L power:GND #PWR03
U 1 1 615E26A8
P 4700 2350
F 0 "#PWR03" H 4700 2100 50  0001 C CNN
F 1 "GND" H 4705 2177 50  0000 C CNN
F 2 "" H 4700 2350 50  0001 C CNN
F 3 "" H 4700 2350 50  0001 C CNN
	1    4700 2350
	1    0    0    -1  
$EndComp
Wire Wire Line
	5550 1450 5650 1450
Wire Wire Line
	5650 1450 5650 1850
Wire Wire Line
	5650 1850 5400 1850
Wire Wire Line
	5100 1850 4850 1850
Wire Wire Line
	4850 1850 4850 1550
Wire Wire Line
	4850 1550 4950 1550
Wire Wire Line
	4850 1950 4850 1850
Connection ~ 4850 1850
$Comp
L power:VCC #PWR04
U 1 1 615EE19B
P 4550 850
F 0 "#PWR04" H 4550 700 50  0001 C CNN
F 1 "VCC" H 4565 1023 50  0000 C CNN
F 2 "" H 4550 850 50  0001 C CNN
F 3 "" H 4550 850 50  0001 C CNN
	1    4550 850 
	1    0    0    -1  
$EndComp
$Comp
L Switch:SW_Push SW2
U 1 1 615EED9D
P 4550 1100
F 0 "SW2" V 4600 1350 50  0000 R CNN
F 1 "SET" V 4500 1350 50  0000 R CNN
F 2 "Button_Switch_SMD:SW_SPST_PTS645" H 4550 1300 50  0001 C CNN
F 3 "~" H 4550 1300 50  0001 C CNN
	1    4550 1100
	0    -1   -1   0   
$EndComp
$Comp
L Device:R_US R2
U 1 1 615F1F44
P 4550 1850
F 0 "R2" H 4300 1900 50  0000 L CNN
F 1 "10k" H 4300 1800 50  0000 L CNN
F 2 "Resistor_SMD:R_0805_2012Metric" V 4590 1840 50  0001 C CNN
F 3 "~" H 4550 1850 50  0001 C CNN
	1    4550 1850
	1    0    0    -1  
$EndComp
Wire Wire Line
	4850 2250 4850 2300
Wire Wire Line
	4850 2300 4700 2300
Wire Wire Line
	4550 2300 4550 2000
Wire Wire Line
	4700 2300 4700 2350
Wire Wire Line
	4950 1350 4550 1350
Wire Wire Line
	4550 1350 4550 1700
Wire Wire Line
	4550 900  4550 850 
Wire Wire Line
	4550 1300 4550 1350
Connection ~ 4550 1350
Connection ~ 4700 2300
Wire Wire Line
	4700 2300 4550 2300
Wire Wire Line
	7450 1450 5650 1450
Connection ~ 5650 1450
$Comp
L power:VCC #PWR05
U 1 1 6160F560
P 7150 1050
F 0 "#PWR05" H 7150 900 50  0001 C CNN
F 1 "VCC" H 7165 1223 50  0000 C CNN
F 2 "" H 7150 1050 50  0001 C CNN
F 3 "" H 7150 1050 50  0001 C CNN
	1    7150 1050
	1    0    0    -1  
$EndComp
Wire Wire Line
	7450 1350 7150 1350
Wire Wire Line
	7150 1350 7150 1050
Text GLabel 6950 1350 0    50   Input ~ 0
jk
Text GLabel 7150 1550 0    50   Input ~ 0
jk
Wire Wire Line
	7150 1350 6950 1350
Connection ~ 7150 1350
Wire Wire Line
	7150 1550 7450 1550
Text GLabel 7150 2350 0    50   Input ~ 0
jk
Text GLabel 7150 2550 0    50   Input ~ 0
jk
Wire Wire Line
	7450 2350 7150 2350
Wire Wire Line
	7150 2550 7450 2550
$Comp
L power:GND #PWR06
U 1 1 61618BA0
P 8250 1100
F 0 "#PWR06" H 8250 850 50  0001 C CNN
F 1 "GND" H 8255 927 50  0000 C CNN
F 2 "" H 8250 1100 50  0001 C CNN
F 3 "" H 8250 1100 50  0001 C CNN
	1    8250 1100
	1    0    0    -1  
$EndComp
Wire Wire Line
	8250 1100 8250 1050
Wire Wire Line
	8250 1050 8000 1050
Wire Wire Line
	7750 1050 7750 1150
Text GLabel 8150 900  2    50   Input ~ 0
g
Wire Wire Line
	8150 900  8000 900 
Wire Wire Line
	8000 900  8000 1050
Connection ~ 8000 1050
Wire Wire Line
	8000 1050 7750 1050
Text GLabel 8100 2150 3    50   Input ~ 0
g
Wire Wire Line
	8100 2050 7750 2050
Wire Wire Line
	7750 2050 7750 2150
Wire Wire Line
	8100 2050 8100 2150
Text GLabel 8200 1550 2    50   Input ~ 0
U2B_C
Text GLabel 7150 2450 0    50   Input ~ 0
U2B_C
Wire Wire Line
	8050 1550 8200 1550
Wire Wire Line
	7450 2450 7150 2450
Text GLabel 8100 3150 3    50   Input ~ 0
g
Wire Wire Line
	7750 3150 7750 3050
Wire Wire Line
	7750 3050 8100 3050
Wire Wire Line
	8100 3050 8100 3150
Text GLabel 7150 3350 0    50   Input ~ 0
jk
Text GLabel 7150 3550 0    50   Input ~ 0
jk
Wire Wire Line
	7150 3350 7450 3350
Wire Wire Line
	7450 3550 7150 3550
Text GLabel 8200 2550 2    50   Input ~ 0
U3A_C
Text GLabel 7150 3450 0    50   Input ~ 0
U3A_C
Wire Wire Line
	7450 3450 7150 3450
Wire Wire Line
	8050 2550 8200 2550
Text GLabel 8100 4150 3    50   Input ~ 0
g
Wire Wire Line
	8100 4150 8100 4050
Wire Wire Line
	8100 4050 7750 4050
Wire Wire Line
	7750 4050 7750 4150
Text GLabel 8200 3550 2    50   Input ~ 0
U3B_C
Wire Wire Line
	8200 3550 8050 3550
Text GLabel 7150 4450 0    50   Input ~ 0
U3B_C
Text GLabel 7150 4350 0    50   Input ~ 0
jk
Text GLabel 7150 4550 0    50   Input ~ 0
jk
Wire Wire Line
	7450 4350 7150 4350
Wire Wire Line
	7150 4450 7450 4450
Wire Wire Line
	7450 4550 7150 4550
Wire Wire Line
	7750 1750 7750 1900
Wire Wire Line
	7750 1900 6550 1900
Wire Wire Line
	6550 1900 6550 2900
Wire Wire Line
	6550 4900 7750 4900
Wire Wire Line
	7750 4900 7750 4750
Wire Wire Line
	7750 3750 7750 3850
Wire Wire Line
	7750 3850 6550 3850
Connection ~ 6550 3850
Wire Wire Line
	6550 3850 6550 4900
Wire Wire Line
	7750 2750 7750 2900
Wire Wire Line
	7750 2900 6550 2900
Connection ~ 6550 2900
Wire Wire Line
	6550 2900 6550 3850
$Comp
L Device:R_US R3
U 1 1 61686EFA
P 10700 4100
F 0 "R3" H 10768 4146 50  0000 L CNN
F 1 "220k" H 10768 4055 50  0000 L CNN
F 2 "Resistor_SMD:R_0805_2012Metric" V 10740 4090 50  0001 C CNN
F 3 "~" H 10700 4100 50  0001 C CNN
	1    10700 4100
	1    0    0    -1  
$EndComp
Wire Wire Line
	10700 4550 10700 4400
Wire Wire Line
	10400 4400 10700 4400
Connection ~ 10700 4400
Wire Wire Line
	10700 4400 10700 4250
Wire Wire Line
	7750 4900 9550 4900
Wire Wire Line
	9550 4900 9550 4300
Wire Wire Line
	9550 4300 9800 4300
Connection ~ 7750 4900
$Comp
L power:VCC #PWR09
U 1 1 6169126A
P 10700 3900
F 0 "#PWR09" H 10700 3750 50  0001 C CNN
F 1 "VCC" H 10715 4073 50  0000 C CNN
F 2 "" H 10700 3900 50  0001 C CNN
F 3 "" H 10700 3900 50  0001 C CNN
	1    10700 3900
	1    0    0    -1  
$EndComp
Wire Wire Line
	10700 3950 10700 3900
$Comp
L power:GND #PWR010
U 1 1 616947E6
P 10700 4900
F 0 "#PWR010" H 10700 4650 50  0001 C CNN
F 1 "GND" H 10705 4727 50  0000 C CNN
F 2 "" H 10700 4900 50  0001 C CNN
F 3 "" H 10700 4900 50  0001 C CNN
	1    10700 4900
	1    0    0    -1  
$EndComp
Wire Wire Line
	10700 4850 10700 4900
Wire Wire Line
	10400 4200 10500 4200
Wire Wire Line
	10500 4200 10500 3150
Wire Wire Line
	10500 3150 10400 3150
NoConn ~ 8050 4550
Wire Wire Line
	8050 4350 9300 4350
Wire Wire Line
	9300 3250 9800 3250
Wire Wire Line
	9800 3050 9300 3050
Wire Wire Line
	9300 3050 9300 2350
Wire Wire Line
	9300 2350 8050 2350
Text GLabel 8200 1350 2    50   Input ~ 0
BCD_a
Wire Wire Line
	8200 1350 8050 1350
Text GLabel 9400 2350 2    50   Input ~ 0
BCD_b
Wire Wire Line
	9400 2350 9300 2350
Connection ~ 9300 2350
Text GLabel 8200 3350 2    50   Input ~ 0
BCD_c
Wire Wire Line
	8200 3350 8050 3350
Text GLabel 9450 3550 2    50   Input ~ 0
BCD_d
Wire Wire Line
	9300 4350 9300 3550
Wire Wire Line
	9450 3550 9300 3550
Connection ~ 9300 3550
Wire Wire Line
	9300 3550 9300 3250
Wire Wire Line
	4200 4400 4400 4400
Wire Wire Line
	3000 4400 3900 4400
Wire Wire Line
	3550 4300 3000 4300
Wire Wire Line
	4400 4300 3850 4300
Wire Wire Line
	3500 4200 4400 4200
Wire Wire Line
	3000 4200 3200 4200
Wire Wire Line
	4000 4100 3000 4100
Wire Wire Line
	4400 4100 4300 4100
Wire Wire Line
	4000 4000 4400 4000
Wire Wire Line
	3000 4000 3700 4000
Wire Wire Line
	3400 3900 3000 3900
Wire Wire Line
	4400 3900 3700 3900
Wire Wire Line
	3400 3800 4400 3800
Wire Wire Line
	3000 3800 3100 3800
NoConn ~ 4400 4500
NoConn ~ 5000 4500
Wire Wire Line
	5100 4400 5100 4550
Wire Wire Line
	5000 4400 5100 4400
$Comp
L power:GND #PWR013
U 1 1 6176F258
P 5100 4550
F 0 "#PWR013" H 5100 4300 50  0001 C CNN
F 1 "GND" H 5105 4377 50  0000 C CNN
F 2 "" H 5100 4550 50  0001 C CNN
F 3 "" H 5100 4550 50  0001 C CNN
	1    5100 4550
	1    0    0    -1  
$EndComp
$Comp
L Device:R_Pack07_SIP_Split RN2
U 7 1 61751BF7
P 4050 4400
F 0 "RN2" V 4200 4400 50  0000 C CNN
F 1 "1k" V 3934 4400 50  0001 C CNN
F 2 "Resistor_THT:R_Array_SIP14" V 3970 4400 50  0001 C CNN
F 3 "http://www.vishay.com/docs/31509/csc.pdf" H 4050 4400 50  0001 C CNN
	7    4050 4400
	0    1    1    0   
$EndComp
$Comp
L Device:R_Pack07_SIP_Split RN2
U 6 1 6174B720
P 3700 4300
F 0 "RN2" V 3950 4300 50  0000 C CNN
F 1 "1k" V 3584 4300 50  0001 C CNN
F 2 "Resistor_THT:R_Array_SIP14" V 3620 4300 50  0001 C CNN
F 3 "http://www.vishay.com/docs/31509/csc.pdf" H 3700 4300 50  0001 C CNN
	6    3700 4300
	0    1    1    0   
$EndComp
$Comp
L Device:R_Pack07_SIP_Split RN2
U 5 1 6174A3FC
P 3350 4200
F 0 "RN2" V 3700 4200 50  0000 C CNN
F 1 "1k" V 3234 4200 50  0001 C CNN
F 2 "Resistor_THT:R_Array_SIP14" V 3270 4200 50  0001 C CNN
F 3 "http://www.vishay.com/docs/31509/csc.pdf" H 3350 4200 50  0001 C CNN
	5    3350 4200
	0    1    1    0   
$EndComp
$Comp
L Device:R_Pack07_SIP_Split RN2
U 4 1 61748EDF
P 4150 4100
F 0 "RN2" V 3650 4100 50  0000 C CNN
F 1 "1k" V 4034 4100 50  0001 C CNN
F 2 "Resistor_THT:R_Array_SIP14" V 4070 4100 50  0001 C CNN
F 3 "http://www.vishay.com/docs/31509/csc.pdf" H 4150 4100 50  0001 C CNN
	4    4150 4100
	0    1    1    0   
$EndComp
$Comp
L Device:R_Pack07_SIP_Split RN2
U 3 1 61747B2C
P 3850 4000
F 0 "RN2" V 3450 4000 50  0000 C CNN
F 1 "1k" V 3734 4000 50  0001 C CNN
F 2 "Resistor_THT:R_Array_SIP14" V 3770 4000 50  0001 C CNN
F 3 "http://www.vishay.com/docs/31509/csc.pdf" H 3850 4000 50  0001 C CNN
	3    3850 4000
	0    1    1    0   
$EndComp
$Comp
L Device:R_Pack07_SIP_Split RN2
U 2 1 61746D71
P 3550 3900
F 0 "RN2" V 3250 3900 50  0000 C CNN
F 1 "1k" V 3434 3900 50  0001 C CNN
F 2 "Resistor_THT:R_Array_SIP14" V 3470 3900 50  0001 C CNN
F 3 "http://www.vishay.com/docs/31509/csc.pdf" H 3550 3900 50  0001 C CNN
	2    3550 3900
	0    1    1    0   
$EndComp
$Comp
L Device:R_Pack07_SIP_Split RN2
U 1 1 61745D04
P 3250 3800
F 0 "RN2" V 3043 3800 50  0000 C CNN
F 1 "1k" V 3134 3800 50  0000 C CNN
F 2 "Resistor_THT:R_Array_SIP14" V 3170 3800 50  0001 C CNN
F 3 "http://www.vishay.com/docs/31509/csc.pdf" H 3250 3800 50  0001 C CNN
	1    3250 3800
	0    1    1    0   
$EndComp
Wire Wire Line
	1200 3800 1900 3800
Wire Wire Line
	1200 3850 1200 3800
$Comp
L power:GND #PWR07
U 1 1 616E2B45
P 1200 3850
F 0 "#PWR07" H 1200 3600 50  0001 C CNN
F 1 "GND" H 1205 3677 50  0000 C CNN
F 2 "" H 1200 3850 50  0001 C CNN
F 3 "" H 1200 3850 50  0001 C CNN
	1    1200 3850
	1    0    0    -1  
$EndComp
Connection ~ 1750 4400
Wire Wire Line
	1200 4400 1200 4350
Wire Wire Line
	1750 4400 1200 4400
Wire Wire Line
	1750 4400 1900 4400
Wire Wire Line
	1750 4300 1750 4400
Wire Wire Line
	1900 4300 1750 4300
$Comp
L power:VCC #PWR08
U 1 1 616DAD41
P 1200 4350
F 0 "#PWR08" H 1200 4200 50  0001 C CNN
F 1 "VCC" H 1215 4523 50  0000 C CNN
F 2 "" H 1200 4350 50  0001 C CNN
F 3 "" H 1200 4350 50  0001 C CNN
	1    1200 4350
	1    0    0    -1  
$EndComp
Wire Wire Line
	2450 4550 2450 4450
$Comp
L power:GND #PWR012
U 1 1 616D6FDB
P 2450 4550
F 0 "#PWR012" H 2450 4300 50  0001 C CNN
F 1 "GND" H 2455 4377 50  0000 C CNN
F 2 "" H 2450 4550 50  0001 C CNN
F 3 "" H 2450 4550 50  0001 C CNN
	1    2450 4550
	1    0    0    -1  
$EndComp
Wire Wire Line
	2450 3750 2450 3650
$Comp
L power:VCC #PWR011
U 1 1 616D2D82
P 2450 3650
F 0 "#PWR011" H 2450 3500 50  0001 C CNN
F 1 "VCC" H 2465 3823 50  0000 C CNN
F 2 "" H 2450 3650 50  0001 C CNN
F 3 "" H 2450 3650 50  0001 C CNN
	1    2450 3650
	1    0    0    -1  
$EndComp
Wire Wire Line
	1900 4200 1700 4200
Text GLabel 1700 4200 0    50   Input ~ 0
BCD_d
Wire Wire Line
	1900 4100 1700 4100
Text GLabel 1700 4100 0    50   Input ~ 0
BCD_c
Wire Wire Line
	1700 4000 1900 4000
Text GLabel 1700 4000 0    50   Input ~ 0
BCD_b
Wire Wire Line
	1900 3900 1700 3900
Text GLabel 1700 3900 0    50   Input ~ 0
BCD_a
$Comp
L Display_Character:D198K U5
U 1 1 615ABF9E
P 4700 4100
F 0 "U5" H 4700 4767 50  0000 C CNN
F 1 "D198K" H 4700 4676 50  0000 C CNN
F 2 "Display_7Segment:7SEGMENT-LED__HDSM531_HDSM533_SMD" H 4700 3500 50  0001 C CNN
F 3 "https://ia800903.us.archive.org/24/items/CTKD1x8K/Cromatek%20D168K.pdf" H 4200 4575 50  0001 L CNN
	1    4700 4100
	1    0    0    -1  
$EndComp
$Comp
L 4xxx_IEEE:4511 U4
U 1 1 615AA775
P 2450 4100
F 0 "U4" H 2150 4650 50  0000 C CNN
F 1 "4511" H 2150 4550 50  0000 C CNN
F 2 "Package_SO:SOIC-16_3.9x9.9mm_P1.27mm" H 2450 4100 50  0001 C CNN
F 3 "" H 2450 4100 50  0001 C CNN
	1    2450 4100
	1    0    0    -1  
$EndComp
Wire Notes Line
	1000 3000 5750 3000
Wire Notes Line
	5750 5250 1000 5250
Wire Notes Line
	5750 3000 5750 6000
Text Notes 1000 2950 0    50   ~ 0
Display
Text Notes 1000 5350 0    50   ~ 0
Power\n
$Comp
L Device:C C3
U 1 1 61683A0B
P 10700 4700
F 0 "C3" H 10815 4746 50  0000 L CNN
F 1 "100n" H 10815 4655 50  0000 L CNN
F 2 "Capacitor_SMD:C_0805_2012Metric" H 10738 4550 50  0001 C CNN
F 3 "~" H 10700 4700 50  0001 C CNN
	1    10700 4700
	1    0    0    -1  
$EndComp
$EndSCHEMATC
